Sentiment Analysis with R
…
Now we can match the tokens to the sentiment lexicon using the left_join() function from the dplyr package. The left_join() function takes two data frames as input, and it returns a data frame with the matching rows from both data frames. Let’s use the NRC lexicon to match the tokens to the sentiment lexicon.

# Join the sentiment lexicon to the text data

gotTwitter_tokens_NRC <- gotTwitter_tokens %>%
  left_join(nrc_lex,
            by = c("token"="word"))

gotTwitter_tokens_NRC %>%
  count(user_id, index = tweet_id %/% 80, sentiment) %>%
  pivot_wider(names_from = sentiment, values_from = n, values_fill = 0) %>% 
  mutate(sentiment = positive - negative)

# A tibble: 2,086 × 14
   user_id   index anticipation   joy positive trust  `NA` negative disgust
   <chr>     <dbl>        <int> <int>    <int> <int> <int>    <int>   <int>
 1 user_1        0            1     1        4     1    27        0       0
 2 user_10       0            0     0        1     1    13        1       0
 3 user_100      1            0     0        0     0    16        0       0
 4 user_1000    14            0     0        2     0    31        1       0
 5 user_1001    14            0     0        2     0    15        0       0
 6 user_1002    14            1     1        2     2    30        0       1
 7 user_1003    14            0     0        0     0    11        0       0
 8 user_1004    14            0     0        1     2    80        2       0
 9 user_1005    14            2     1        1     0    41        0       0
10 user_1006    15            0     0        0     0    19        0       0
# ℹ 2,076 more rows
# ℹ 5 more variables: sadness <int>, surprise <int>, anger <int>, fear <int>,
#   sentiment <int>
…
Now that we have a list of the sentiment tokens found in our corpus, we can for instance produce a table that summarises the most frequent sentiment words in the text, and their sentiment. We can use the count() function to count the number of positive and negative words in the text, and the ggplot2 package to visualize the results.

# Create a frequency table of the sentiment words

text_sentiment_afinn %>%
  filter(!is.na(value)) %>%
  mutate(polarity = ifelse(value < 0, "negative", "positive")) %>% # we want to calculate the sentiment score for each sentence
  count(token, polarity) %>%
  group_by(polarity) %>%
  top_n(15, n) %>%
  ungroup()

# A tibble: 31 × 3
   token   polarity     n
   <chr>   <chr>    <int>
 1 afraid  negative   198
 2 alone   negative   173
 3 anxious negative   165
 4 bad     negative   174
 5 best    positive   323
 6 better  positive   639
 7 cried   negative   405
 8 dear    positive   822
 9 doubt   negative   281
10 evil    negative   133
# ℹ 21 more rows

Or we can count them by novel.

# Create a frequency table of the sentiment words by novel

text_sentiment_afinn %>%
  filter(!is.na(value)) %>%
  mutate(polarity = ifelse(value < 0, "negative", "positive")) %>% # we want to calculate the sentiment score for each sentence
  count(doc_id, token, polarity) %>%
  group_by(doc_id, polarity) %>%
  top_n(15, n) %>%
  ungroup()

# A tibble: 181 × 4
   doc_id              token     polarity     n
   <fct>               <chr>     <chr>    <int>
 1 Sense & Sensibility affection positive    79
 2 Sense & Sensibility alone     negative    32
 3 Sense & Sensibility anxious   negative    29
 4 Sense & Sensibility better    positive    78
 5 Sense & Sensibility comfort   positive    63
 6 Sense & Sensibility cried     negative    87
 7 Sense & Sensibility dear      positive   118
 8 Sense & Sensibility distress  negative    26
 9 Sense & Sensibility doubt     negative    46
10 Sense & Sensibility fear      negative    26
# ℹ 171 more rows
…
